Position,Const,Created,Modified,Description,Title,Original Title,URL,Title Type,IMDb Rating,Runtime (mins),Year,Genres,Num Votes,Release Date,Directors
1,tt0903747,2012-10-16,2012-10-16,,"Breaking Bad","Breaking Bad",https://www.imdb.com/title/tt0903747/,TV Series,9.5,45,2008,"Crime, Drama, Thriller",2168453,2008-01-20,
2,tt0303461,2012-10-16,2012-10-16,,"Firefly","Firefly",https://www.imdb.com/title/tt0303461/,TV Series,8.9,45,2002,"Adventure, Drama, Sci-Fi",283281,2002-09-20,
3,tt0436992,2013-08-10,2013-08-10,,"Doctor Who","Doctor Who",https://www.imdb.com/title/tt0436992/,TV Series,8.6,45,2005,"Adventure, Drama, Sci-Fi",249674,2006-03-17,
4,tt0367279,2012-10-16,2012-10-16,,"Arrested Development","Arrested Development",https://www.imdb.com/title/tt0367279/,TV Series,8.7,22,2003,"Comedy",326247,2003-11-02,
5,tt0098936,2012-10-16,2012-10-16,,"Twin Peaks","Twin Peaks",https://www.imdb.com/title/tt0098936/,TV Series,8.8,50,1990,"Crime, Drama, Mystery, Thriller",217462,1990-04-08,
6,tt0804503,2012-10-16,2012-10-16,,"Mad Men","Mad Men",https://www.imdb.com/title/tt0804503/,TV Series,8.7,45,2007,"Drama",262585,2007-07-19,
7,tt1493239,2012-10-16,2012-10-16,,"Terriers","Terriers",https://www.imdb.com/title/tt1493239/,TV Series,8.4,45,2010,"Comedy, Crime, Drama, Mystery, Thriller",11315,2010-09-08,
8,tt1475582,2012-10-16,2012-10-16,,"Sherlock","Sherlock",https://www.imdb.com/title/tt1475582/,TV Series,9.1,90,2010,"Crime, Drama, Mystery, Thriller",1008475,2010-10-24,
9,tt0193676,2012-10-16,2012-10-16,,"Freaks and Geeks","Freaks and Geeks",https://www.imdb.com/title/tt0193676/,TV Series,8.8,45,1999,"Comedy, Drama",154205,1999-09-25,
10,tt1266020,2012-10-16,2012-10-16,,"Parks and Recreation","Parks and Recreation",https://www.imdb.com/title/tt1266020/,TV Series,8.6,22,2009,"Comedy",290869,2009-04-09,
11,tt0052520,2012-10-16,2012-10-16,,"The Twilight Zone","The Twilight Zone",https://www.imdb.com/title/tt0052520/,TV Series,9.1,50,1959,"Drama, Fantasy, Horror, Mystery, Sci-Fi, Thriller",94588,1959-10-02,
12,tt1578873,2012-10-16,2012-10-16,,"Pretty Little Liars","Pretty Little Liars",https://www.imdb.com/title/tt1578873/,TV Series,7.4,44,2010,"Drama, Mystery, Romance, Thriller",179514,2010-06-08,
13,tt1837642,2012-10-16,2012-10-16,,"Revenge","Revenge",https://www.imdb.com/title/tt1837642/,TV Series,7.8,44,2011,"Drama, Mystery, Thriller",125553,2011-09-21,
14,tt1358522,2012-10-16,2012-10-16,,"White Collar","White Collar",https://www.imdb.com/title/tt1358522/,TV Series,8.2,40,2009,"Comedy, Crime, Drama, Mystery",143561,2009-10-23,
15,tt0290978,2012-10-16,2012-10-16,,"The Office","The Office",https://www.imdb.com/title/tt0290978/,TV Series,8.5,30,2001,"Comedy, Drama",124006,2003-01-23,
16,tt1405406,2012-10-16,2012-10-16,,"The Vampire Diaries","The Vampire Diaries",https://www.imdb.com/title/tt1405406/,TV Series,7.7,43,2009,"Drama, Fantasy, Horror, Mystery, Romance, Thriller",352863,2009-09-10,
17,tt1699748,2012-10-16,2012-10-16,,"Hell on Wheels","Hell on Wheels",https://www.imdb.com/title/tt1699748/,TV Series,8.3,42,2011,"Drama, Western",56137,2011-11-06,
18,tt0387764,2012-10-16,2012-10-16,,"Peep Show","Peep Show",https://www.imdb.com/title/tt0387764/,TV Series,8.7,25,2003,"Comedy",67188,2004-11-12,
19,tt1124373,2012-10-16,2012-10-16,,"Sons of Anarchy","Sons of Anarchy",https://www.imdb.com/title/tt1124373/,TV Series,8.6,45,2008,"Crime, Drama, Thriller",326488,2008-09-03,
20,tt0047708,2012-10-16,2012-10-16,,"Alfred Hitchcock Presents","Alfred Hitchcock Presents",https://www.imdb.com/title/tt0047708/,TV Series,8.5,25,1955,"Drama, Mystery",19456,1955-10-02,
21,tt0106179,2012-10-16,2012-10-16,,"The X-Files","The X Files",https://www.imdb.com/title/tt0106179/,TV Series,8.6,45,1993,"Crime, Drama, Mystery, Sci-Fi, Thriller",252113,1993-09-10,
22,tt1486217,2012-10-16,2012-10-16,,"Archer","Archer",https://www.imdb.com/title/tt1486217/,TV Series,8.6,22,2009,"Animation, Action, Comedy",167102,2009-09-17,
23,tt1832979,2012-10-16,2012-10-16,,"Hart of Dixie","Hart of Dixie",https://www.imdb.com/title/tt1832979/,TV Series,7.7,60,2011,"Comedy, Drama, Romance",57056,2011-09-26,
24,tt1758772,2012-10-16,2012-10-16,,"Switched at Birth","Switched at Birth",https://www.imdb.com/title/tt1758772/,TV Series,7.7,60,2011,"Drama, Family, Romance",26232,2011-06-06,
25,tt1615919,2012-10-16,2012-10-16,,"Raising Hope","Raising Hope",https://www.imdb.com/title/tt1615919/,TV Series,8.1,22,2010,"Comedy, Family",40982,2010-09-01,
26,tt0758745,2012-10-16,2012-10-16,,"Friday Night Lights","Friday Night Lights",https://www.imdb.com/title/tt0758745/,TV Series,8.7,45,2006,"Drama, Sport",73009,2006-10-03,
27,tt1520211,2012-10-16,2012-10-16,,"The Walking Dead","The Walking Dead",https://www.imdb.com/title/tt1520211/,TV Series,8.1,45,2010,"Drama, Horror, Thriller",1093106,2010-10-31,
28,tt1416765,2012-10-16,2012-10-16,,"Parenthood","Parenthood",https://www.imdb.com/title/tt1416765/,TV Series,8.3,60,2010,"Comedy, Drama",37753,2010-03-02,
29,tt1480684,2012-10-16,2012-10-16,,"The League","The League",https://www.imdb.com/title/tt1480684/,TV Series,8.3,22,2009,"Comedy, Sport",52315,2009-10-29,
30,tt1199099,2012-10-16,2012-10-16,,"Merlin","Merlin",https://www.imdb.com/title/tt1199099/,TV Series,7.9,45,2008,"Adventure, Drama, Fantasy",87765,2009-06-21,
31,tt0285403,2012-10-16,2012-10-16,,"Scrubs","Scrubs",https://www.imdb.com/title/tt0285403/,TV Series,8.4,22,2001,"Comedy, Drama",271874,2001-10-02,
32,tt1492966,2012-10-16,2012-10-16,,"Louie","Louie",https://www.imdb.com/title/tt1492966/,TV Series,8.5,22,2010,"Comedy, Drama",82453,2010-06-29,
33,tt0487831,2012-10-16,2012-10-16,,"The IT Crowd","The IT Crowd",https://www.imdb.com/title/tt0487831/,TV Series,8.5,25,2006,"Comedy",165585,2006-02-03,
34,tt0460681,2012-10-16,2012-10-16,,"Supernatural","Supernatural",https://www.imdb.com/title/tt0460681/,TV Series,8.4,44,2005,"Drama, Fantasy, Horror, Mystery, Thriller",488127,2005-09-13,
35,tt0874936,2012-10-16,2012-10-16,,"Life","Life",https://www.imdb.com/title/tt0874936/,TV Series,8.3,45,2007,"Crime, Drama, Mystery",35418,2007-09-26,
36,tt1132290,2012-10-16,2012-10-16,,"Warehouse 13","Warehouse 13",https://www.imdb.com/title/tt1132290/,TV Series,7.6,43,2009,"Adventure, Drama, Mystery, Sci-Fi, Thriller",57901,2009-07-07,
37,tt0460649,2012-10-16,2012-10-16,,"How I Met Your Mother","How I Met Your Mother",https://www.imdb.com/title/tt0460649/,TV Series,8.3,23,2005,"Comedy, Drama, Romance",734023,2005-09-19,
38,tt1474684,2012-10-16,2012-10-16,,"Luther","Luther",https://www.imdb.com/title/tt1474684/,TV Series,8.4,60,2010,"Crime, Drama, Mystery, Thriller",155243,2010-10-17,
39,tt0772137,2012-10-16,2012-10-16,,"The Game","The Game",https://www.imdb.com/title/tt0772137/,TV Series,6.8,21,2006,"Comedy, Drama, Romance, Sport",4817,2006-10-01,
40,tt0805661,2012-10-16,2012-10-16,,"The Black Donnellys","The Black Donnellys",https://www.imdb.com/title/tt0805661/,TV Series,8.1,60,2007,"Crime, Drama",14404,2007-02-26,
41,tt1641349,2012-10-16,2012-10-16,,"Terra Nova","Terra Nova",https://www.imdb.com/title/tt1641349/,TV Series,6.7,46,2011,"Adventure, Drama, Mystery, Sci-Fi",86312,2011-09-26,
42,tt1620950,2012-10-16,2012-10-16,,"The Chicago Code","The Chicago Code",https://www.imdb.com/title/tt1620950/,TV Series,7.7,44,2011,"Action, Crime, Drama",8498,2011-02-07,
43,tt1703925,2012-10-16,2012-10-16,,"Wilfred","Wilfred",https://www.imdb.com/title/tt1703925/,TV Series,7.8,22,2011,"Comedy, Drama, Mystery",44505,2011-06-23,
44,tt1235099,2012-10-16,2012-10-16,,"Lie to Me","Lie to Me",https://www.imdb.com/title/tt1235099/,TV Series,8.0,43,2009,"Crime, Drama, Mystery, Thriller",128681,2009-01-21,
45,tt0491738,2012-10-16,2012-10-16,,"Psych","Psych",https://www.imdb.com/title/tt0491738/,TV Series,8.4,44,2006,"Comedy, Crime, Mystery",109247,2006-07-07,
46,tt1843230,2012-10-16,2012-10-16,,"Once Upon a Time","Once Upon a Time",https://www.imdb.com/title/tt1843230/,TV Series,7.7,60,2011,"Adventure, Fantasy, Romance",238304,2011-10-23,
47,tt1637727,2012-10-16,2012-10-16,,"The Killing","The Killing",https://www.imdb.com/title/tt1637727/,TV Series,8.3,45,2011,"Crime, Drama, Mystery, Thriller",124714,2011-04-03,
48,tt0455275,2012-10-16,2012-10-16,,"Prison Break","Prison Break",https://www.imdb.com/title/tt0455275/,TV Series,8.3,44,2005,"Action, Crime, Drama, Mystery, Thriller",584505,2005-08-29,
49,tt1442109,2012-10-16,2012-10-16,,"Life Unexpected","Life Unexpected",https://www.imdb.com/title/tt1442109/,TV Series,7.5,60,2010,"Drama",15544,2010-01-18,
50,tt1590961,2012-10-16,2012-10-16,,"Breakout Kings","Breakout Kings",https://www.imdb.com/title/tt1590961/,TV Series,7.2,43,2011,"Crime, Drama, Thriller",16487,2011-03-06,
51,tt0094582,2012-10-16,2012-10-16,,"The Wonder Years","The Wonder Years",https://www.imdb.com/title/tt0094582/,TV Series,8.4,22,1988,"Comedy, Drama, Family, Romance",41085,1988-01-31,
52,tt0859592,2012-10-16,2012-10-16,,"Army Wives","Army Wives",https://www.imdb.com/title/tt0859592/,TV Series,7.5,60,2007,"Drama, Romance, War",8489,2007-03,
53,tt1183865,2012-10-16,2012-10-16,,"Alphas","Alphas",https://www.imdb.com/title/tt1183865/,TV Series,7.2,44,2011,"Action, Drama, Sci-Fi, Thriller",29802,2011-07-11,
54,tt0805663,2012-10-16,2012-10-16,,"Jericho","Jericho",https://www.imdb.com/title/tt0805663/,TV Series,7.9,45,2006,"Action, Drama, Mystery, Sci-Fi",59019,2006-09-20,
55,tt1059475,2012-10-16,2012-10-16,,"Flashpoint","Flashpoint",https://www.imdb.com/title/tt1059475/,TV Series,7.8,41,2008,"Action, Crime, Drama, Thriller",18722,2008-07-11,
56,tt1552112,2012-10-16,2012-10-16,,"The Glades","The Glades",https://www.imdb.com/title/tt1552112/,TV Series,7.4,60,2010,"Action, Crime, Drama, Mystery",14957,2010-07-11,
57,tt0203259,2012-10-16,2012-10-16,,"Law & Order: Special Victims Unit","Law & Order: Special Victims Unit",https://www.imdb.com/title/tt0203259/,TV Series,8.1,60,1999,"Crime, Drama, Mystery, Thriller",127379,1999-09-20,
58,tt1001482,2012-10-16,2012-10-16,,"United States of Tara","United States of Tara",https://www.imdb.com/title/tt1001482/,TV Series,8.0,30,2009,"Comedy, Drama, Romance",25313,2009-01-18,
59,tt1280822,2012-10-16,2012-10-16,,"Drop Dead Diva","Drop Dead Diva",https://www.imdb.com/title/tt1280822/,TV Series,7.5,60,2009,"Comedy, Drama",21106,2009-07-12,
60,tt1597420,2012-10-16,2012-10-16,,"Melissa & Joey","Melissa & Joey",https://www.imdb.com/title/tt1597420/,TV Series,7.0,30,2010,"Comedy, Romance",19833,2010-08-17,
61,tt0368530,2012-10-16,2012-10-16,,"One Tree Hill","One Tree Hill",https://www.imdb.com/title/tt0368530/,TV Series,7.8,60,2003,"Drama, Romance, Sport",87911,2003-09-23,
62,tt1561755,2012-10-16,2012-10-16,,"Bob's Burgers","Bob's Burgers",https://www.imdb.com/title/tt1561755/,TV Series,8.2,22,2011,"Animation, Comedy",93367,2011-01-09,
63,tt1344204,2012-10-16,2012-10-16,,"Blue Mountain State","Blue Mountain State",https://www.imdb.com/title/tt1344204/,TV Series,8.3,22,2010,"Comedy, Sport",59047,2010-01-11,
64,tt0460644,2012-10-16,2012-10-16,,"Ghost Whisperer","Ghost Whisperer",https://www.imdb.com/title/tt0460644/,TV Series,6.5,60,2005,"Drama, Fantasy",50100,2005-09-23,
65,tt0285333,2012-10-16,2012-10-16,,"Alias","Alias",https://www.imdb.com/title/tt0285333/,TV Series,7.6,42,2001,"Action, Drama, Mystery, Sci-Fi, Thriller",55068,2001-09-30,
66,tt0165598,2012-10-16,2012-10-16,,"That '70s Show","That '70s Show",https://www.imdb.com/title/tt0165598/,TV Series,8.1,22,1998,"Comedy, Drama, Romance",190469,1998-08-23,
67,tt0972412,2012-10-16,2012-10-16,,"Private Practice","Private Practice",https://www.imdb.com/title/tt0972412/,TV Series,6.8,60,2007,"Comedy, Drama, Romance",29205,2007-09-19,
68,tt1135300,2012-10-16,2012-10-16,,"Dollhouse","Dollhouse",https://www.imdb.com/title/tt1135300/,TV Series,7.7,44,2009,"Drama, Mystery, Sci-Fi, Thriller",52001,2009-02-13,
69,tt0914387,2012-10-16,2012-10-16,,"Damages","Damages",https://www.imdb.com/title/tt0914387/,TV Series,8.1,60,2007,"Crime, Drama, Mystery, Thriller",31750,2007-07-24,
70,tt0212671,2012-10-16,2012-10-16,,"Malcolm in the Middle","Malcolm in the Middle",https://www.imdb.com/title/tt0212671/,TV Series,8.2,22,2000,"Comedy, Family",143776,2000-01-09,
71,tt1382367,2012-10-16,2012-10-16,,"Hawthorne","Hawthorne",https://www.imdb.com/title/tt1382367/,TV Series,6.0,43,2009,"Drama",3158,2009-06-16,
72,tt1379690,2012-10-16,2012-10-16,,"Lights Out","Lights Out",https://www.imdb.com/title/tt1379690/,TV Series,8.0,60,2011,"Crime, Drama, Sport",3338,2011-01-11,
73,tt0290988,2012-10-16,2012-10-16,,"Trailer Park Boys","Trailer Park Boys",https://www.imdb.com/title/tt0290988/,TV Series,8.5,30,2001,"Comedy, Crime",51234,2004-04-20,
74,tt0162065,2012-10-16,2012-10-16,,"Angel","Angel",https://www.imdb.com/title/tt0162065/,TV Series,7.9,44,1999,"Action, Adventure, Drama, Fantasy, Thriller",76295,1999-10-05,
75,tt1349938,2012-10-16,2012-10-16,,"Being Human","Being Human",https://www.imdb.com/title/tt1349938/,TV Series,7.8,60,2008,"Comedy, Drama, Fantasy, Horror",26659,2009-01-25,
76,tt0201391,2012-10-16,2012-10-16,,"Roswell","Roswell",https://www.imdb.com/title/tt0201391/,TV Series,7.5,42,1999,"Drama, Mystery, Romance, Sci-Fi, Thriller",30836,1999-10-06,
77,tt0053479,2012-10-16,2012-10-16,,"The Andy Griffith Show","The Andy Griffith Show",https://www.imdb.com/title/tt0053479/,TV Series,8.4,30,1960,"Comedy, Family",17222,1960-10-03,
78,tt0433309,2012-10-16,2012-10-16,,"Numb3rs","Numb3rs",https://www.imdb.com/title/tt0433309/,TV Series,6.9,43,2005,"Crime, Drama, Mystery, Thriller",46016,2005-01-23,
79,tt0439100,2012-10-16,2012-10-16,,"Weeds","Weeds",https://www.imdb.com/title/tt0439100/,TV Series,7.9,28,2005,"Comedy, Crime, Drama",117851,2005-08-07,
80,tt0758790,2012-10-16,2012-10-16,,"The Tudors","The Tudors",https://www.imdb.com/title/tt0758790/,TV Series,8.1,60,2007,"Drama, History, Romance, War",81822,2007-04-01,
81,tt0285370,2012-10-16,2012-10-16,,"The Guardian","The Guardian",https://www.imdb.com/title/tt0285370/,TV Series,7.4,60,2001,"Crime, Drama",5962,2001-09-25,
82,tt1258189,2012-10-16,2012-10-16,,"Survivors","Survivors",https://www.imdb.com/title/tt1258189/,TV Series,7.5,60,2008,"Drama, Sci-Fi",8945,2008-11-23,
83,tt1567254,2012-10-16,2012-10-16,,"The Good Guys","The Good Guys",https://www.imdb.com/title/tt1567254/,TV Series,8.1,60,2010,"Action, Comedy",7596,2010-05-19,
84,tt1599357,2012-10-16,2012-10-16,,"The Gates","The Gates",https://www.imdb.com/title/tt1599357/,TV Series,7.1,60,2010,"Crime, Drama, Fantasy, Mystery, Thriller",8467,2010-06-20,
85,tt0381798,2012-10-16,2012-10-16,,"Rescue Me","Rescue Me",https://www.imdb.com/title/tt0381798/,TV Series,8.3,42,2004,"Comedy, Drama",28116,2004-07-21,
86,tt1958961,2012-10-16,2012-10-16,,"Lilyhammer","Lilyhammer",https://www.imdb.com/title/tt1958961/,TV Series,7.9,45,2012,"Comedy, Crime, Drama",32531,2014-09-15,
87,tt1179817,2012-10-16,2012-10-16,,"The Secret Life of the American Teenager","The Secret Life of the American Teenager",https://www.imdb.com/title/tt1179817/,TV Series,4.9,43,2008,"Comedy, Drama, Family, Romance",20994,2008-09-03,
88,tt1195935,2012-10-16,2012-10-16,,"The Cleveland Show","The Cleveland Show",https://www.imdb.com/title/tt1195935/,TV Series,5.6,22,2009,"Animation, Adventure, Comedy",43174,2009-09-27,
89,tt0485301,2012-10-16,2012-10-16,,"Torchwood","Torchwood",https://www.imdb.com/title/tt0485301/,TV Series,7.7,50,2006,"Action, Drama, Mystery, Sci-Fi, Thriller",43743,2006-10-22,
90,tt0397442,2012-10-16,2012-10-16,,"Gossip Girl","Gossip Girl",https://www.imdb.com/title/tt0397442/,TV Series,7.5,42,2007,"Drama, Romance",195419,2007-09-19,
91,tt0284718,2012-10-16,2012-10-16,,"Crossing Jordan","Crossing Jordan",https://www.imdb.com/title/tt0284718/,TV Series,7.0,60,2001,"Crime, Drama, Mystery",12370,2001-09-24,
92,tt0411008,2012-10-16,2012-10-16,,"Lost","Lost",https://www.imdb.com/title/tt0411008/,TV Series,8.3,43,2004,"Adventure, Drama, Fantasy, Mystery, Sci-Fi, Thriller",600998,2004-09-22,
93,tt0118276,2012-10-16,2012-10-16,,"Buffy the Vampire Slayer","Buffy the Vampire Slayer",https://www.imdb.com/title/tt0118276/,TV Series,8.3,44,1997,"Action, Adventure, Drama, Fantasy, Romance",160987,1997-03-10,
94,tt0496424,2012-10-16,2012-10-16,,"30 Rock","30 Rock",https://www.imdb.com/title/tt0496424/,TV Series,8.3,22,2006,"Comedy",132600,2006-10-11,
95,tt0083399,2012-10-16,2012-10-16,,"Cheers","Cheers",https://www.imdb.com/title/tt0083399/,TV Series,8.0,22,1982,"Comedy, Drama",62627,1982-09-30,
96,tt0397306,2012-10-16,2012-10-16,,"American Dad!","American Dad!",https://www.imdb.com/title/tt0397306/,TV Series,7.4,22,2005,"Animation, Comedy",137099,2005-02-06,
97,tt0088559,2012-10-16,2012-10-16,,"MacGyver","MacGyver",https://www.imdb.com/title/tt0088559/,TV Series,7.6,48,1985,"Action, Adventure, Crime, Drama",42354,1985-09-29,
98,tt0790772,2012-10-16,2012-10-16,,"Rules of Engagement","Rules of Engagement",https://www.imdb.com/title/tt0790772/,TV Series,7.4,22,2007,"Comedy, Romance",36123,2007-02-03,
99,tt0813715,2012-10-16,2012-10-16,,"Heroes","Heroes",https://www.imdb.com/title/tt0813715/,TV Series,7.5,45,2006,"Drama, Fantasy, Sci-Fi, Thriller",252541,2006-09-25,
100,tt0787985,2012-10-16,2012-10-16,,"Robin Hood","Robin Hood",https://www.imdb.com/title/tt0787985/,TV Series,7.4,60,2006,"Action, Adventure, Comedy, Drama, Romance",17359,2007-03-03,
101,tt0106004,2012-10-16,2012-10-16,,"Frasier","Frasier",https://www.imdb.com/title/tt0106004/,TV Series,8.2,22,1993,"Comedy",96291,1993-09-16,
102,tt0112167,2012-10-16,2012-10-16,,"Sliders","Sliders",https://www.imdb.com/title/tt0112167/,TV Series,7.4,60,1995,"Adventure, Fantasy, Sci-Fi",20550,1995-03-22,
103,tt1780441,2012-10-16,2012-10-16,,"Portlandia","Portlandia",https://www.imdb.com/title/tt1780441/,TV Series,7.8,22,2011,"Comedy",23274,2011-01-11,
104,tt0054533,2012-10-16,2012-10-16,,"The Dick Van Dyke Show","The Dick Van Dyke Show",https://www.imdb.com/title/tt0054533/,TV Series,8.4,30,1961,"Comedy, Family",12016,1961-10-03,
105,tt0096684,2012-10-16,2012-10-16,,"Quantum Leap","Quantum Leap",https://www.imdb.com/title/tt0096684/,TV Series,8.2,60,1989,"Action, Adventure, Drama, Mystery, Sci-Fi",36764,1989-03-26,
106,tt1361839,2012-10-16,2012-10-16,,"Sons of Tucson","Sons of Tucson",https://www.imdb.com/title/tt1361839/,TV Series,7.0,30,2010,"Comedy",2244,2010-03-14,
107,tt1820742,2012-10-16,2012-10-16,,"A Gifted Man","A Gifted Man",https://www.imdb.com/title/tt1820742/,TV Series,7.0,45,2011,"Drama, Fantasy",7683,2011-09-23,
108,tt0084967,2012-10-16,2012-10-16,,"The A-Team","The A-Team",https://www.imdb.com/title/tt0084967/,TV Series,7.5,60,1983,"Action, Adventure, Crime",42150,1983-01-23,
109,tt0412175,2012-10-16,2012-10-16,,"Medium","Medium",https://www.imdb.com/title/tt0412175/,TV Series,7.1,60,2005,"Crime, Drama, Fantasy, Mystery, Thriller",31334,2005-01-03,
110,tt0496343,2012-10-16,2012-10-16,,"The Riches","The Riches",https://www.imdb.com/title/tt0496343/,TV Series,7.8,,2007,"Comedy, Crime, Drama",8743,2007-03-12,
111,tt1697793,2012-10-16,2012-10-16,,"Outcasts","Outcasts",https://www.imdb.com/title/tt1697793/,TV Series,6.6,50,2010,"Drama, Sci-Fi",5849,2011-06-18,
112,tt0112230,2012-10-16,2012-10-16,,"Xena: Warrior Princess","Xena: Warrior Princess",https://www.imdb.com/title/tt0112230/,TV Series,6.7,45,1995,"Action, Adventure, Drama, Fantasy",49042,1995-09-04,
113,tt0076984,2012-10-16,2012-10-16,,"Battlestar Galactica","Battlestar Galactica",https://www.imdb.com/title/tt0076984/,TV Series,7.2,60,1978,"Action, Adventure, Sci-Fi",17583,1978-09-17,
114,tt0071003,2012-10-16,2012-10-16,,"Kolchak: The Night Stalker","Kolchak: The Night Stalker",https://www.imdb.com/title/tt0071003/,TV Series,8.4,51,1974,"Horror, Mystery, Thriller",6328,1974-09-13,
115,tt0077031,2012-10-16,2012-10-16,,"The Incredible Hulk","The Incredible Hulk",https://www.imdb.com/title/tt0077031/,TV Series,7.0,60,1978,"Action, Adventure, Drama, Sci-Fi",16309,1978-03-10,
116,tt0111999,2012-10-16,2012-10-16,,"Hercules: The Legendary Journeys","Hercules: The Legendary Journeys",https://www.imdb.com/title/tt0111999/,TV Series,6.5,44,1995,"Action, Adventure, Drama, Fantasy, Romance",32033,1995-01-16,
117,tt0158552,2012-10-16,2012-10-16,,"Charmed","Charmed",https://www.imdb.com/title/tt0158552/,TV Series,7.2,42,1998,"Drama, Fantasy, Mystery",92442,1998-10-07,
118,tt0313043,2012-10-16,2012-10-16,,"CSI: Miami","CSI: Miami",https://www.imdb.com/title/tt0313043/,TV Series,6.5,43,2002,"Action, Crime, Drama, Mystery, Thriller",61535,2002-09-23,
119,tt0086765,2012-10-16,2012-10-16,,"Murder, She Wrote","Murder, She Wrote",https://www.imdb.com/title/tt0086765/,TV Series,7.2,50,1984,"Crime, Drama, Mystery",29666,1984-09-30,
120,tt0086662,2012-10-16,2012-10-16,,"Airwolf","Airwolf",https://www.imdb.com/title/tt0086662/,TV Series,6.7,60,1984,"Action, Adventure, Sci-Fi",13258,1984-01-22,
121,tt0096694,2012-10-16,2012-10-16,,"Saved by the Bell","Saved by the Bell",https://www.imdb.com/title/tt0096694/,TV Series,7.1,30,1989,"Comedy, Family, Romance",37732,1989-08-20,
122,tt1695989,2012-10-16,2012-10-16,,"The Increasingly Poor Decisions of Todd Margaret","The Increasingly Poor Decisions of Todd Margaret",https://www.imdb.com/title/tt1695989/,TV Series,7.5,25,2009,"Comedy",6867,2010-10-01,
123,tt0115167,2012-10-16,2012-10-16,,"Everybody Loves Raymond","Everybody Loves Raymond",https://www.imdb.com/title/tt0115167/,TV Series,7.3,22,1996,"Comedy",77738,1996-09-13,
124,tt0108758,2012-10-16,2012-10-16,,"Earth 2","Earth 2",https://www.imdb.com/title/tt0108758/,TV Series,6.9,60,1994,"Adventure, Sci-Fi",5547,1994-11-06,
125,tt0118254,2012-10-16,2012-10-16,,"Ally McBeal","Ally McBeal",https://www.imdb.com/title/tt0118254/,TV Series,6.9,45,1997,"Comedy, Drama, Fantasy, Music, Romance",36657,1997-09-08,
126,tt0310455,2012-10-16,2012-10-16,,"Foyle's War","Foyle's War",https://www.imdb.com/title/tt0310455/,TV Series,8.6,90,2002,"Crime, Drama, Mystery, War",18502,2003-02-02,
127,tt0075513,2012-10-16,2012-10-16,,"The Hardy Boys/Nancy Drew Mysteries","The Hardy Boys/Nancy Drew Mysteries",https://www.imdb.com/title/tt0075513/,TV Series,7.3,60,1977,"Crime, Family, Mystery",2040,1977-01-30,
128,tt1129029,2012-10-16,2012-10-16,,"Satisfaction","Satisfaction",https://www.imdb.com/title/tt1129029/,TV Series,7.3,60,2007,"Drama",1481,2007-12-05,
129,tt0477507,2012-10-16,2012-10-16,,"Spiral","Engrenages",https://www.imdb.com/title/tt0477507/,TV Series,8.5,52,2005,"Crime, Drama, Mystery",6810,2005-12-13,
130,tt1840429,2012-10-16,2012-10-16,,"Rob","Rob",https://www.imdb.com/title/tt1840429/,TV Series,5.5,30,2012,"Comedy",2139,2012-01-12,
131,tt0489606,2012-10-16,2012-10-16,,"Lipstick Jungle","Lipstick Jungle",https://www.imdb.com/title/tt0489606/,TV Series,6.5,60,2008,"Comedy, Drama",7648,2008-02-07,
132,tt1839497,2012-10-16,2012-10-16,,"How to Be a Gentleman","How to Be a Gentleman",https://www.imdb.com/title/tt1839497/,TV Series,4.7,30,2011,"Comedy",1834,2011-09-29,
133,tt1856010,2013-02-06,2013-02-06,,"House of Cards","House of Cards",https://www.imdb.com/title/tt1856010/,TV Series,8.6,50,2013,"Drama",533630,2013-02-01,
134,tt0200276,2013-02-06,2013-02-06,,"The West Wing","The West Wing",https://www.imdb.com/title/tt0200276/,TV Series,8.9,42,1999,"Drama",86433,1999-09-22,
135,tt1595680,2013-02-06,2013-02-06,,"Being Human","Being Human",https://www.imdb.com/title/tt1595680/,TV Series,7.5,44,2011,"Drama, Fantasy, Horror",27029,2011-01-17,
136,tt1844624,2013-02-06,2013-02-06,,"American Horror Story","American Horror Story",https://www.imdb.com/title/tt1844624/,TV Series,8.0,60,2011,"Drama, Horror, Sci-Fi, Thriller",346454,2011-10-05,
137,tt0472954,2013-02-06,2013-02-06,,"It's Always Sunny in Philadelphia","It's Always Sunny in Philadelphia",https://www.imdb.com/title/tt0472954/,TV Series,8.8,22,2005,"Comedy",254365,2005-08-04,
138,tt1178618,2013-02-06,2013-02-06,,"Wallander","Wallander",https://www.imdb.com/title/tt1178618/,TV Series,7.8,90,2008,"Crime, Drama, Mystery, Thriller",16590,2009-05-10,
139,tt0408381,2013-02-06,2013-02-06,,"Doc Martin","Doc Martin",https://www.imdb.com/title/tt0408381/,TV Series,8.4,46,2004,"Comedy, Drama, Romance",20483,2004-01-01,
140,tt1837576,2013-02-07,2013-02-07,,"Scandal","Scandal",https://www.imdb.com/title/tt1837576/,TV Series,7.7,43,2012,"Drama, Thriller",80091,2012-04-05,
141,tt1798274,2013-02-07,2013-02-07,,"The Lying Game","The Lying Game",https://www.imdb.com/title/tt1798274/,TV Series,7.3,44,2011,"Drama, Mystery",19161,2011-08-15,
142,tt2177489,2013-02-07,2013-02-07,,"Baby Daddy","Baby Daddy",https://www.imdb.com/title/tt2177489/,TV Series,7.3,22,2012,"Comedy, Drama, Family, Romance",21752,2012-06-20,
143,tt1094229,2013-02-07,2013-02-07,,"Heartland","Heartland",https://www.imdb.com/title/tt1094229/,TV Series,8.5,45,2007,"Drama, Family",20288,2007-10-14,
144,tt0796264,2013-02-07,2013-02-07,,"Eureka","Eureka",https://www.imdb.com/title/tt0796264/,TV Series,7.9,60,2006,"Adventure, Comedy, Drama, Romance, Sci-Fi",58692,2006-07-18,
145,tt0285341,2013-02-07,2013-02-07,,"The Bernie Mac Show","The Bernie Mac Show",https://www.imdb.com/title/tt0285341/,TV Series,7.2,30,2001,"Comedy, Drama, Family",8538,2001-11-07,
146,tt1235547,2013-02-07,2013-02-07,,"Better Off Ted","Better Off Ted",https://www.imdb.com/title/tt1235547/,TV Series,8.2,30,2009,"Comedy, Sci-Fi",27445,2009-03-18,
147,tt1220617,2013-02-07,2013-02-07,,"The Inbetweeners","The Inbetweeners",https://www.imdb.com/title/tt1220617/,TV Series,8.4,25,2008,"Comedy",94947,2010-01-25,
148,tt0771329,2013-02-07,2013-02-07,,"Kidnapped","Kidnapped",https://www.imdb.com/title/tt0771329/,TV Series,7.6,,2006,"Crime, Drama",2987,2006-09-20,
149,tt1723760,2013-03-03,2013-03-03,,"Dallas","Dallas",https://www.imdb.com/title/tt1723760/,TV Series,7.2,42,2012,"Drama, Romance",10883,2012-06-13,
150,tt2103085,2013-04-27,2013-04-27,,"Top of the Lake","Top of the Lake",https://www.imdb.com/title/tt2103085/,TV Series,7.4,,2013,"Crime, Drama, Mystery, Thriller",37946,2013-03-18,
151,tt2294189,2013-06-27,2013-06-27,,"The Fall","The Fall",https://www.imdb.com/title/tt2294189/,TV Series,8.1,60,2013,"Crime, Drama, Thriller",120868,2013-05-12,
152,tt1119644,2013-08-10,2013-08-10,,"Fringe","Fringe",https://www.imdb.com/title/tt1119644/,TV Series,8.4,46,2008,"Drama, Mystery, Sci-Fi, Thriller",258858,2008-09-09,
153,tt1713938,2013-08-24,2013-08-24,,"XIII: The Series","XIII: The Series",https://www.imdb.com/title/tt1713938/,TV Series,6.4,45,2011,"Action, Crime, Drama, Mystery, Thriller",2749,2012-06-29,
154,tt1809194,2013-08-24,2013-08-24,,"Traffic Light","Traffic Light",https://www.imdb.com/title/tt1809194/,TV Series,7.2,30,2011,"Comedy",2242,2011-02-08,
155,tt1821681,2013-08-24,2013-08-24,,"Touch","Touch",https://www.imdb.com/title/tt1821681/,TV Series,7.3,43,2012,"Drama, Mystery, Sci-Fi",43470,2012-01-25,
156,tt0452718,2013-08-24,2013-08-24,,"Surface","Surface",https://www.imdb.com/title/tt0452718/,TV Series,7.2,60,2005,"Adventure, Drama, Mystery, Sci-Fi, Thriller",10393,2005-09-19,
157,tt0770652,2013-08-24,2013-08-24,,"The State Within","The State Within",https://www.imdb.com/title/tt0770652/,TV Mini Series,7.7,50,2006,"Crime, Drama, Thriller, War",2451,2006-11-02,
158,tt0060028,2013-08-24,2013-08-24,,"Star Trek","Star Trek",https://www.imdb.com/title/tt0060028/,TV Series,8.4,50,1966,"Action, Adventure, Sci-Fi",93804,1966-09-08,
159,tt0092455,2013-08-24,2013-08-24,,"Star Trek: The Next Generation","Star Trek: The Next Generation",https://www.imdb.com/title/tt0092455/,TV Series,8.7,45,1987,"Action, Adventure, Drama, Sci-Fi",137696,1987-09-26,
160,tt0106145,2013-08-24,2013-08-24,,"Star Trek: Deep Space Nine","Star Trek: Deep Space Nine",https://www.imdb.com/title/tt0106145/,TV Series,8.1,45,1993,"Action, Adventure, Drama, Sci-Fi, Thriller",71498,1993-01-03,
161,tt0112178,2013-08-24,2013-08-24,,"Star Trek: Voyager","Star Trek: Voyager",https://www.imdb.com/title/tt0112178/,TV Series,7.9,44,1995,"Action, Adventure, Drama, Sci-Fi, Thriller",78079,1995-01-16,
162,tt0244365,2013-08-24,2013-08-24,,"Star Trek: Enterprise","Enterprise",https://www.imdb.com/title/tt0244365/,TV Series,7.5,60,2001,"Action, Adventure, Drama, Sci-Fi",59668,2001-09-26,
163,tt0071042,2013-08-24,2013-08-24,,"The Rockford Files","The Rockford Files",https://www.imdb.com/title/tt0071042/,TV Series,8.2,50,1974,"Crime, Drama, Mystery, Thriller",11052,1974-03-27,
164,tt1819654,2013-08-24,2013-08-24,,"Ringer","Ringer",https://www.imdb.com/title/tt1819654/,TV Series,6.9,44,2011,"Crime, Drama, Mystery, Thriller",21193,2011-09-13,
165,tt2183641,2013-08-24,2013-08-24,,"Ripper Street","Ripper Street",https://www.imdb.com/title/tt2183641/,TV Series,8.1,59,2012,"Crime, Drama, Mystery, Thriller",22650,2013-01-19,
166,tt2070791,2013-08-24,2013-08-24,,"Revolution","Revolution",https://www.imdb.com/title/tt2070791/,TV Series,6.6,43,2012,"Action, Adventure, Drama, Romance, Sci-Fi, Thriller",86284,2012-09-17,
167,tt2372162,2013-08-24,2013-08-24,,"Orange Is the New Black","Orange Is the New Black",https://www.imdb.com/title/tt2372162/,TV Series,8.0,59,2013,"Comedy, Crime, Drama",321784,2013-07-11,
168,tt0118401,2013-08-24,2013-08-24,,"Midsomer Murders","Midsomer Murders",https://www.imdb.com/title/tt0118401/,TV Series,7.9,90,1997,"Crime, Drama, Mystery",40015,1998-06-28,
169,tt1429449,2013-08-24,2013-08-24,,"Lost Girl","Lost Girl",https://www.imdb.com/title/tt1429449/,TV Series,7.6,44,2010,"Action, Drama, Fantasy, Mystery, Romance",33231,2010-09-12,
170,tt1836037,2013-08-24,2013-08-24,,"Longmire","Longmire",https://www.imdb.com/title/tt1836037/,TV Series,8.3,60,2012,"Action, Crime, Drama, Western",40396,2012-06-03,
171,tt1449940,2013-08-24,2013-08-24,,"Land Girls","Land Girls",https://www.imdb.com/title/tt1449940/,TV Series,7.0,225,2009,"Drama",3597,2009-09-06,
172,tt0103442,2013-08-24,2013-08-24,,"Highlander","Highlander",https://www.imdb.com/title/tt0103442/,TV Series,7.2,60,1992,"Action, Adventure, Fantasy, Mystery, Romance, Sci-Fi",17958,1992-10-06,
173,tt2309295,2013-08-24,2013-08-24,,"Hemlock Grove","Hemlock Grove",https://www.imdb.com/title/tt2309295/,TV Series,7.0,46,2013,"Drama, Fantasy, Horror, Mystery, Sci-Fi, Thriller",42818,2013-04-19,
174,tt1604113,2013-08-24,2013-08-24,,"Friends with Benefits","Friends with Benefits",https://www.imdb.com/title/tt1604113/,TV Series,6.5,21,2011,"Comedy",3521,2011-08-05,
175,tt1441219,2013-08-24,2013-08-24,,"The Deep End","The Deep End",https://www.imdb.com/title/tt1441219/,TV Series,6.8,60,2010,"Drama",803,2010-01-21,
176,tt1551948,2013-08-24,2013-08-24,,"Dance Academy","Dance Academy",https://www.imdb.com/title/tt1551948/,TV Series,8.0,24,2010,"Drama, Family, Music, Romance",5096,2011-08-09,
177,tt0395843,2013-08-24,2013-08-24,,"CSI: NY","CSI: NY",https://www.imdb.com/title/tt0395843/,TV Series,7.0,43,2004,"Action, Crime, Drama, Mystery, Thriller",49818,2004-09-22,
178,tt2006374,2013-08-24,2013-08-24,,"Copper","Copper",https://www.imdb.com/title/tt2006374/,TV Series,7.5,42,2012,"Action, Drama",11069,2012-08-06,
179,tt1954347,2013-08-24,2013-08-24,,"Continuum","Continuum",https://www.imdb.com/title/tt1954347/,TV Series,7.6,45,2012,"Action, Sci-Fi, Thriller",63762,2013-01-14,
180,tt0494186,2013-08-24,2013-08-24,,"Conviction","Conviction",https://www.imdb.com/title/tt0494186/,TV Series,6.9,60,2006,"Crime, Drama, Mystery",1027,2006-03-03,
181,tt1466074,2013-08-24,2013-08-24,,"Columbo","Columbo",https://www.imdb.com/title/tt1466074/,TV Series,8.3,100,1971,"Crime, Drama, Mystery, Thriller",42678,1971-09-15,
182,tt1983079,2013-08-24,2013-08-24,,"Call the Midwife","Call the Midwife",https://www.imdb.com/title/tt1983079/,TV Series,8.6,60,2012,"Drama, History",31873,2012-01-15,
183,tt1736341,2013-08-24,2013-08-24,,"Borgia","Borgia",https://www.imdb.com/title/tt1736341/,TV Series,7.7,52,2011,"Biography, Drama, History",7275,2011-04-03,
184,tt0460627,2013-08-24,2013-08-24,,"Bones","Bones",https://www.imdb.com/title/tt0460627/,TV Series,7.8,40,2005,"Crime, Drama, Mystery",177778,2005-09-13,
185,tt1955311,2013-08-24,2013-08-24,,"Bomb Girls","Bomb Girls",https://www.imdb.com/title/tt1955311/,TV Series,7.8,60,2012,"Drama, War",4596,2012-09-11,
186,tt1839683,2013-08-24,2013-08-24,,"Awake","Awake",https://www.imdb.com/title/tt1839683/,TV Series,7.8,43,2012,"Drama, Fantasy, Mystery, Sci-Fi",21551,2012-02-16,
187,tt0837106,2013-08-24,2013-08-24,,"Arn: The Knight Templar","Arn: Tempelriddaren",https://www.imdb.com/title/tt0837106/,Movie,6.6,139,2007,"Action, Drama, Romance, War",23233,2007-12-17,"Peter Flinth"
188,tt1225901,2013-08-24,2013-08-24,,"90210","90210",https://www.imdb.com/title/tt1225901/,TV Series,6.2,60,2008,"Comedy, Drama, Romance",46290,2008-09-02,
189,tt2239947,2013-08-24,2013-08-24,,"Political Animals","Political Animals",https://www.imdb.com/title/tt2239947/,TV Mini Series,7.6,60,2012,"Drama",6570,2012-07-15,
190,tt0830900,2013-08-24,2013-08-24,,"Saving Grace","Saving Grace",https://www.imdb.com/title/tt0830900/,TV Series,7.6,60,2007,"Crime, Drama, Fantasy, Mystery",5739,2007-07-23,
191,tt0840196,2013-08-24,2013-08-24,,"Skins","Skins",https://www.imdb.com/title/tt0840196/,TV Series,8.2,46,2007,"Drama",93798,2011-01-17,
192,tt0810788,2013-08-25,2013-08-25,,"Burn Notice","Burn Notice",https://www.imdb.com/title/tt0810788/,TV Series,8.0,44,2007,"Action, Crime, Drama, Mystery, Thriller",79592,2007-06-28,
193,tt0149460,2013-09-09,2013-09-09,,"Futurama","Futurama",https://www.imdb.com/title/tt0149460/,TV Series,8.5,22,1999,"Animation, Adventure, Comedy, Sci-Fi",262901,1999-03-28,
194,tt0386676,2013-09-09,2013-09-09,,"The Office","The Office",https://www.imdb.com/title/tt0386676/,TV Series,9.0,22,2005,"Comedy",724263,2005-03-24,
195,tt2616280,2013-09-14,2013-09-14,,"Derek","Derek",https://www.imdb.com/title/tt2616280/,TV Series,8.1,23,2012,"Comedy, Drama",35812,2013-09-12,
196,tt1828327,2013-09-25,2013-09-25,,"Last Man Standing","Last Man Standing",https://www.imdb.com/title/tt1828327/,TV Series,7.5,30,2011,"Comedy",37747,2011-10-11,
197,tt1519931,2013-09-25,2013-09-25,,"Haven","Haven",https://www.imdb.com/title/tt1519931/,TV Series,7.5,60,2010,"Crime, Drama, Fantasy, Horror, Mystery, Sci-Fi, Thriller",41593,2010-07-09,
198,tt0092379,2013-09-25,2013-09-25,,"Inspector Morse","Inspector Morse",https://www.imdb.com/title/tt0092379/,TV Series,8.2,90,1987,"Crime, Drama, Mystery",14549,1988-02-04,
199,tt2197797,2013-10-01,2013-10-01,,"666 Park Avenue","666 Park Avenue",https://www.imdb.com/title/tt2197797/,TV Series,6.8,,2012,"Drama, Fantasy, Horror, Mystery, Sci-Fi, Thriller",18422,2012-09-30,
200,tt1091909,2013-10-01,2013-10-01,,"Murdoch Mysteries","Murdoch Mysteries",https://www.imdb.com/title/tt1091909/,TV Series,8.2,48,2008,"Crime, Drama, Mystery",17767,2008-01-24,
201,tt2193041,2013-10-07,2013-10-07,,"Beauty and the Beast","Beauty and the Beast",https://www.imdb.com/title/tt2193041/,TV Series,7.0,60,2012,"Drama, Horror, Romance, Sci-Fi, Thriller",38193,2012-10-11,
202,tt2262532,2013-10-07,2013-10-07,,"The Fosters","The Fosters",https://www.imdb.com/title/tt2262532/,TV Series,7.9,60,2013,"Drama, Romance",31000,2013-06-03,
203,tt2071645,2013-10-10,2013-10-10,,"The Following","The Following",https://www.imdb.com/title/tt2071645/,TV Series,7.4,43,2013,"Crime, Drama, Horror, Mystery, Thriller",91894,2013-01-21,
204,tt1819509,2013-10-10,2013-10-10,,"Don't Trust the B---- in Apartment 23","Don't Trust the B---- in Apartment 23",https://www.imdb.com/title/tt1819509/,TV Series,7.3,22,2012,"Comedy",40629,2012-04-11,
205,tt2193021,2013-10-10,2013-10-10,,"Arrow","Arrow",https://www.imdb.com/title/tt2193021/,TV Series,7.5,42,2012,"Action, Adventure, Crime, Drama, Mystery, Sci-Fi",447469,2012-10-10,
206,tt2290339,2013-10-19,2013-10-19,,"Emily Owens M.D.","Emily Owens M.D.",https://www.imdb.com/title/tt2290339/,TV Series,7.5,43,2012,"Comedy, Drama, Romance",6808,2012-10-16,
207,tt2056366,2013-10-28,2013-10-28,,"The Carrie Diaries","The Carrie Diaries",https://www.imdb.com/title/tt2056366/,TV Series,7.0,42,2013,"Comedy, Drama, Romance",29053,2013-01-14,
208,tt1826940,2013-10-30,2013-10-30,,"New Girl","New Girl",https://www.imdb.com/title/tt1826940/,TV Series,7.8,22,2011,"Comedy, Romance",247448,2011-09-20,
209,tt1327801,2013-10-30,2013-10-30,,"Glee","Glee",https://www.imdb.com/title/tt1327801/,TV Series,6.8,44,2009,"Comedy, Drama, Music, Musical",156090,2009-05-19,
210,tt0773262,2013-10-31,2013-10-31,,"Dexter","Dexter",https://www.imdb.com/title/tt0773262/,TV Series,8.6,60,2006,"Crime, Drama, Mystery, Thriller",778279,2006-10-01,
211,tt0934814,2013-11-01,2013-11-01,,"Chuck","Chuck",https://www.imdb.com/title/tt0934814/,TV Series,8.2,43,2007,"Action, Comedy, Drama",147657,2007-09-24,
212,tt1103987,2013-11-01,2013-11-01,,"Leverage","Leverage",https://www.imdb.com/title/tt1103987/,TV Series,7.9,42,2008,"Crime, Mystery, Thriller",54468,2008-12-07,
213,tt2275990,2013-11-01,2013-11-01,,"The Bletchley Circle","The Bletchley Circle",https://www.imdb.com/title/tt2275990/,TV Series,7.9,,2012,"Crime, Drama, History, Mystery, Thriller",14243,2012-09-06,
214,tt2520512,2014-01-25,2014-01-25,,"Maron","Maron",https://www.imdb.com/title/tt2520512/,TV Series,7.7,22,2013,"Comedy",5253,2013-05-03,
215,tt0401019,2014-01-25,2014-01-25,,"Island at War","Island at War",https://www.imdb.com/title/tt0401019/,TV Mini Series,7.6,66,2004,"Drama, War",1981,2005-01-23,
216,tt0187636,2014-01-25,2014-01-25,,"Farscape","Farscape",https://www.imdb.com/title/tt0187636/,TV Series,8.3,50,1999,"Action, Adventure, Drama, Sci-Fi",40570,1999-03-19,
217,tt1988386,2014-01-25,2014-01-25,,"Miss Fisher's Murder Mysteries","Miss Fisher's Murder Mysteries",https://www.imdb.com/title/tt1988386/,TV Series,8.2,60,2012,"Crime, Drama, History, Mystery",17905,2012-02-24,
218,tt0389564,2014-01-26,2014-01-26,,"The 4400","The 4400",https://www.imdb.com/title/tt0389564/,TV Series,7.3,43,2004,"Drama, Mystery, Sci-Fi, Thriller",47021,2004-07-11,
219,tt0118327,2014-01-26,2014-01-26,,"The Grand","The Grand",https://www.imdb.com/title/tt0118327/,TV Series,7.5,,1997,"Drama",689,1997-04-04,
220,tt0413573,2014-01-26,2014-01-26,,"Grey's Anatomy","Grey's Anatomy",https://www.imdb.com/title/tt0413573/,TV Series,7.6,41,2005,"Drama, Romance",345601,2005-03-27,
221,tt2232345,2014-01-26,2014-01-26,,"Hit & Miss","Hit & Miss",https://www.imdb.com/title/tt2232345/,TV Mini Series,7.8,45,2012,"Drama",5025,2012-05-22,
222,tt0330251,2014-01-26,2014-01-26,,"The L Word","The L Word",https://www.imdb.com/title/tt0330251/,TV Series,7.7,50,2004,"Drama, Romance",28928,2004-01-18,
223,tt1794147,2014-01-26,2014-01-26,,"The L.A. Complex","The L.A. Complex",https://www.imdb.com/title/tt1794147/,TV Series,7.3,60,2012,"Drama",2927,2012-04-24,
224,tt0238793,2014-01-26,2014-01-26,,"Monarch of the Glen","Monarch of the Glen",https://www.imdb.com/title/tt0238793/,TV Series,7.7,60,2000,"Comedy, Drama, Romance",3810,2001-01-01,
225,tt1825122,2014-01-26,2014-01-26,,"NYC 22","NYC 22",https://www.imdb.com/title/tt1825122/,TV Series,6.5,60,2012,"Crime, Drama",1582,2012-04-15,
226,tt1333050,2014-01-26,2014-01-26,,"Persons Unknown","Persons Unknown",https://www.imdb.com/title/tt1333050/,TV Series,6.8,43,2010,"Drama, Mystery, Thriller",8711,2010-06-07,
227,tt1973692,2014-01-26,2014-01-26,,"Rita","Rita",https://www.imdb.com/title/tt1973692/,TV Series,8.1,40,2012,"Comedy, Drama",10204,2014-09-15,
228,tt0377253,2014-01-26,2014-01-26,,"Rosemary & Thyme","Rosemary & Thyme",https://www.imdb.com/title/tt0377253/,TV Series,7.6,48,2003,"Crime, Drama, Mystery",5402,2003-08-30,
229,tt1837654,2014-01-26,2014-01-26,,"The Secret Circle","The Secret Circle",https://www.imdb.com/title/tt1837654/,TV Series,7.3,45,2011,"Drama, Fantasy, Horror, Mystery, Romance",48921,2011-09-15,
230,tt2355844,2014-01-26,2014-01-26,,"Twisted","Twisted",https://www.imdb.com/title/tt2355844/,TV Series,7.2,60,2013,"Drama, Mystery, Thriller",10242,2013-06-11,
231,tt0094525,2014-01-26,2014-01-26,,"Poirot","Poirot",https://www.imdb.com/title/tt0094525/,TV Series,8.6,100,1989,"Crime, Drama, Mystery, Thriller",52647,1990-01-18,
232,tt0373732,2014-01-26,2014-01-26,,"The Boondocks","The Boondocks",https://www.imdb.com/title/tt0373732/,TV Series,8.5,22,2005,"Animation, Action, Comedy, Drama",36197,2005-11-06,
233,tt0460091,2014-01-26,2014-01-26,,"My Name Is Earl","My Name Is Earl",https://www.imdb.com/title/tt0460091/,TV Series,7.8,22,2005,"Comedy",110255,2005-09-20,
234,tt0108981,2014-01-26,2014-01-26,,"The Vicar of Dibley","The Vicar of Dibley",https://www.imdb.com/title/tt0108981/,TV Series,8.0,60,1994,"Comedy",15632,1994-11-10,
235,tt2188671,2014-02-16,2014-02-16,,"Bates Motel","Bates Motel",https://www.imdb.com/title/tt2188671/,TV Series,8.1,45,2013,"Drama, Horror, Mystery, Thriller",117949,2013-03-18,
236,tt1582457,2014-02-16,2014-02-16,,"The Borgias","The Borgias",https://www.imdb.com/title/tt1582457/,TV Series,7.9,50,2011,"Crime, Drama, History, Romance",54176,2011-04-03,
237,tt2427220,2014-02-20,2014-02-20,,"Crossing Lines","Crossing Lines",https://www.imdb.com/title/tt2427220/,TV Series,7.3,46,2013,"Action, Crime, Drama, Mystery, Thriller",13891,2013-06-23,
238,tt2193053,2014-02-20,2014-02-20,,"Cult","Cult",https://www.imdb.com/title/tt2193053/,TV Series,6.1,60,2013,"Drama, Horror, Mystery, Sci-Fi, Thriller",4587,2013-02-12,
239,tt2521668,2014-03-05,2014-03-05,,"The Returned","Les revenants",https://www.imdb.com/title/tt2521668/,TV Series,8.1,,2012,"Drama, Fantasy, Horror, Mystery",21393,2013-10-31,
240,tt1138475,2014-03-05,2014-03-05,,"The Guild","The Guild",https://www.imdb.com/title/tt1138475/,TV Series,8.2,4,2007,"Short, Comedy",10500,2007-07-27,
241,tt2400391,2014-05-17,2014-05-17,,"Legit","Legit",https://www.imdb.com/title/tt2400391/,TV Series,8.1,30,2013,"Comedy",8829,2013-01-17,
242,tt2391224,2014-05-17,2014-05-17,,"The Paradise","The Paradise",https://www.imdb.com/title/tt2391224/,TV Series,7.7,60,2012,"Drama",12680,2013-10-06,
243,tt1319735,2014-05-17,2014-05-17,,"Royal Pains","Royal Pains",https://www.imdb.com/title/tt1319735/,TV Series,7.2,42,2009,"Comedy, Drama",23602,2009-06-04,
244,tt2365946,2014-05-17,2014-05-17,,"Bitten","Bitten",https://www.imdb.com/title/tt2365946/,TV Series,6.9,44,2014,"Drama, Fantasy, Horror, Mystery",19374,2014-01-13,
245,tt2355844,2014-05-17,2014-05-17,,"Twisted","Twisted",https://www.imdb.com/title/tt2355844/,TV Series,7.2,60,2013,"Drama, Mystery, Thriller",10242,2013-06-11,
246,tt2661044,2014-10-23,2014-10-23,,"The 100","The 100",https://www.imdb.com/title/tt2661044/,TV Series,7.6,43,2014,"Drama, Mystery, Sci-Fi",279140,2014-03-19,
247,tt2660734,2014-10-23,2014-10-23,,"The Tomorrow People","The Tomorrow People",https://www.imdb.com/title/tt2660734/,TV Series,7.2,43,2013,"Action, Drama, Sci-Fi",37251,2013-10-09,
248,tt2632424,2014-10-23,2014-10-23,,"The Originals","The Originals",https://www.imdb.com/title/tt2632424/,TV Series,8.3,45,2013,"Drama, Fantasy, Horror, Mystery",149377,2013-10-03,
249,tt2647258,2014-10-23,2014-10-23,,"Hostages","Hostages",https://www.imdb.com/title/tt2647258/,TV Series,6.7,,2013,"Drama, Mystery, Thriller",10242,2013-09-23,
250,tt2710394,2014-10-23,2014-10-23,,"Reign","Reign",https://www.imdb.com/title/tt2710394/,TV Series,7.5,42,2013,"Drama",54800,2013-10-17,
251,tt0238784,2014-10-23,2014-10-23,,"Gilmore Girls","Gilmore Girls",https://www.imdb.com/title/tt0238784/,TV Series,8.2,44,2000,"Comedy, Drama",150113,2000-10-05,
252,tt2442560,2014-10-23,2014-10-23,,"Peaky Blinders","Peaky Blinders",https://www.imdb.com/title/tt2442560/,TV Series,8.8,60,2013,"Crime, Drama",660934,2014-09-30,
253,tt2070791,2014-10-23,2014-10-23,,"Revolution","Revolution",https://www.imdb.com/title/tt2070791/,TV Series,6.6,43,2012,"Action, Adventure, Drama, Romance, Sci-Fi, Thriller",86284,2012-09-17,
254,tt2321596,2014-10-23,2014-10-23,,"Wolfblood","Wolfblood",https://www.imdb.com/title/tt2321596/,TV Series,7.4,30,2012,"Family, Fantasy",4059,2012-09-30,
255,tt2666270,2014-10-23,2014-10-23,,"About a Boy","About a Boy",https://www.imdb.com/title/tt2666270/,TV Series,7.4,22,2014,"Comedy, Drama, Romance",8831,2014-02-22,
256,tt2741602,2014-10-23,2014-10-23,,"The Blacklist","The Blacklist",https://www.imdb.com/title/tt2741602/,TV Series,7.9,43,2013,"Crime, Drama, Mystery, Thriller",281457,2013-09-23,
257,tt3074646,2014-10-23,2014-10-23,,"The Assets","The Assets",https://www.imdb.com/title/tt3074646/,TV Mini Series,7.4,60,2014,"Thriller",2369,2014-01-02,
258,tt0904208,2014-10-23,2014-10-23,,"Californication","Californication",https://www.imdb.com/title/tt0904208/,TV Series,8.3,30,2007,"Comedy, Drama",189083,2007-08-13,
259,tt3428912,2014-10-23,2014-10-23,,"Happy Valley","Happy Valley",https://www.imdb.com/title/tt3428912/,TV Series,8.5,60,2014,"Crime, Drama, Thriller",65503,2014-04-29,
260,tt3337194,2014-10-23,2014-10-23,,"From Dusk Till Dawn: The Series","From Dusk Till Dawn: The Series",https://www.imdb.com/title/tt3337194/,TV Series,6.8,45,2014,"Action, Crime, Fantasy, Horror",21607,2014-03-11,
261,tt2314792,2014-10-23,2014-10-23,,"Low Winter Sun","Low Winter Sun",https://www.imdb.com/title/tt2314792/,TV Series,7.0,43,2013,"Crime, Drama",6062,2013-08-11,
262,tt0452046,2014-10-23,2014-10-23,,"Criminal Minds","Criminal Minds",https://www.imdb.com/title/tt0452046/,TV Series,8.1,42,2005,"Crime, Drama, Mystery, Thriller",221520,2005-09-22,
263,tt2884286,2014-10-23,2014-10-23,,"The Spoils of Babylon","The Spoils of Babylon",https://www.imdb.com/title/tt2884286/,TV Mini Series,6.7,23,2014,"Comedy",4145,2014-01-09,
264,tt2734804,2015-01-02,2015-01-02,,"Reckless","Reckless",https://www.imdb.com/title/tt2734804/,TV Series,7.0,60,2014,"Crime, Drama",3382,2014-06-29,
265,tt2647420,2015-01-02,2015-01-02,,"Fleming","Fleming",https://www.imdb.com/title/tt2647420/,TV Mini Series,7.2,47,2014,"Biography, Drama, Romance",5308,2014-01-29,
266,tt1752076,2015-01-02,2015-01-02,,"The Almighty Johnsons","The Almighty Johnsons",https://www.imdb.com/title/tt1752076/,TV Series,8.1,47,2011,"Comedy, Drama, Fantasy",5019,2014-07-11,
267,tt2758950,2015-01-02,2015-01-02,,"Helix","Helix",https://www.imdb.com/title/tt2758950/,TV Series,6.7,40,2014,"Drama, Horror, Mystery, Sci-Fi, Thriller",30688,2014-01-10,
268,tt0408381,2015-01-02,2015-01-02,,"Doc Martin","Doc Martin",https://www.imdb.com/title/tt0408381/,TV Series,8.4,46,2004,"Comedy, Drama, Romance",20483,2004-01-01,
269,tt2025899,2015-01-02,2015-01-02,,"Dicte","Dicte",https://www.imdb.com/title/tt2025899/,TV Series,7.2,60,2013,"Crime, Drama",3704,2013-01-07,
270,tt1595859,2015-01-02,2015-01-02,,"Blue Bloods","Blue Bloods",https://www.imdb.com/title/tt1595859/,TV Series,7.7,43,2010,"Crime, Drama, Mystery, Thriller",48501,2010-09-24,
271,tt2085059,2015-01-02,2015-01-02,,"Black Mirror","Black Mirror",https://www.imdb.com/title/tt2085059/,TV Series,8.7,60,2011,"Crime, Drama, Mystery, Sci-Fi, Thriller",646994,2011-12-04,
272,tt2364582,2015-01-02,2015-01-02,,"Agents of S.H.I.E.L.D.","Agents of S.H.I.E.L.D.",https://www.imdb.com/title/tt2364582/,TV Series,7.5,45,2013,"Action, Adventure, Drama, Sci-Fi, Thriller",226805,2013-09-24,
273,tt2249364,2015-01-02,2015-01-02,,"Broadchurch","Broadchurch",https://www.imdb.com/title/tt2249364/,TV Series,8.4,48,2013,"Crime, Drama, Mystery",128740,2013-08-07,
274,tt3021686,2015-01-02,2015-01-02,,"The Honorable Woman","The Honourable Woman",https://www.imdb.com/title/tt3021686/,TV Mini Series,7.9,58,2014,"Drama, Thriller",11619,2014-07-31,
275,tt0068098,2015-03-30,2015-03-30,,"M*A*S*H","M*A*S*H",https://www.imdb.com/title/tt0068098/,TV Series,8.5,25,1972,"Comedy, Drama, War",64478,1972-09-17,
276,tt1832045,2015-03-30,2015-03-30,,"Magic City","Magic City",https://www.imdb.com/title/tt1832045/,TV Series,7.6,60,2012,"Crime, Drama",13353,2012-03-30,
277,tt0255734,2015-03-30,2015-03-30,,"Grounded for Life","Grounded for Life",https://www.imdb.com/title/tt0255734/,TV Series,7.5,22,2001,"Comedy",15993,2001-01-10,
278,tt0115082,2015-03-30,2015-03-30,,"3rd Rock from the Sun","3rd Rock from the Sun",https://www.imdb.com/title/tt0115082/,TV Series,7.8,60,1996,"Comedy, Family, Sci-Fi",56088,1996-01-09,
279,tt3339966,2015-03-30,2015-03-30,,"Unbreakable Kimmy Schmidt","Unbreakable Kimmy Schmidt",https://www.imdb.com/title/tt3339966/,TV Series,7.6,30,2015,"Comedy",79233,2015-03-06,
280,tt2543328,2015-03-30,2015-03-30,,"TURN: Washington's Spies","Turn",https://www.imdb.com/title/tt2543328/,TV Series,8.1,60,2014,"Drama, History, War",23616,2014-04-06,
281,tt0092339,2015-03-30,2015-03-30,,"A Different World","A Different World",https://www.imdb.com/title/tt0092339/,TV Series,7.0,60,1987,"Comedy",8033,1987-09-24,
282,tt2505072,2015-03-30,2015-03-30,,"The Red Road","The Red Road",https://www.imdb.com/title/tt2505072/,TV Series,7.3,60,2014,"Crime, Drama, Thriller",5798,2014-02-27,
283,tt1600194,2015-03-30,2015-03-30,,"Hawaii Five-0","Hawaii Five-0",https://www.imdb.com/title/tt1600194/,TV Series,7.4,42,2010,"Action, Crime, Drama",79156,2010-09-20,
284,tt1449940,2015-03-30,2015-03-30,,"Land Girls","Land Girls",https://www.imdb.com/title/tt1449940/,TV Series,7.0,225,2009,"Drama",3597,2009-09-06,
285,tt2484950,2015-03-30,2015-03-30,,"Sirens","Sirens",https://www.imdb.com/title/tt2484950/,TV Series,7.8,22,2014,"Comedy, Drama, Romance",6738,2014-03-06,
286,tt0377260,2015-03-30,2015-03-30,,"Shameless","Shameless",https://www.imdb.com/title/tt0377260/,TV Series,8.0,90,2004,"Comedy, Crime, Drama",18689,2004-01-13,
287,tt4635276,2015-11-14,2015-11-14,,"Master of None","Master of None",https://www.imdb.com/title/tt4635276/,TV Series,8.2,30,2015,"Comedy, Drama",76523,2015-11-06,
288,tt4574708,2015-11-14,2015-11-14,,"W/Bob and David","W/ Bob and David",https://www.imdb.com/title/tt4574708/,TV Series,7.3,30,2015,"Comedy",4666,2015-11-13,
289,tt0262150,2015-11-14,2015-11-14,,"Black Books","Black Books",https://www.imdb.com/title/tt0262150/,TV Series,8.5,25,2000,"Comedy",62183,2001-12-09,
290,tt1830379,2015-11-14,2015-11-14,,"Top Boy","Top Boy",https://www.imdb.com/title/tt1830379/,TV Series,8.4,60,2011,"Crime, Drama, Thriller",40657,2011-10-31,
291,tt3566726,2015-11-14,2015-11-14,,"Jane the Virgin","Jane the Virgin",https://www.imdb.com/title/tt3566726/,TV Series,7.9,60,2014,"Comedy",59745,2014-10-13,
292,tt2402137,2015-11-14,2015-11-14,,"Legends","Legends",https://www.imdb.com/title/tt2402137/,TV Series,7.4,60,2014,"Action, Crime, Drama, Thriller",13507,2014-08-13,
293,tt3501584,2015-11-14,2015-11-14,,"iZombie","iZombie",https://www.imdb.com/title/tt3501584/,TV Series,7.8,42,2015,"Comedy, Crime, Drama, Horror",75138,2015-03-17,
294,tt4159076,2015-11-14,2015-11-14,,"Dark Matter","Dark Matter",https://www.imdb.com/title/tt4159076/,TV Series,7.5,42,2015,"Adventure, Drama, Mystery, Sci-Fi, Thriller",45576,2015-06-12,
295,tt0313043,2015-11-14,2015-11-14,,"CSI: Miami","CSI: Miami",https://www.imdb.com/title/tt0313043/,TV Series,6.5,43,2002,"Action, Crime, Drama, Mystery, Thriller",61535,2002-09-23,
296,tt3749900,2015-11-14,2015-11-14,,"Gotham","Gotham",https://www.imdb.com/title/tt3749900/,TV Series,7.8,42,2014,"Action, Crime, Drama, Mystery, Sci-Fi, Thriller",241755,2014-09-22,
297,tt3205802,2015-11-14,2015-11-14,,"How to Get Away with Murder","How to Get Away with Murder",https://www.imdb.com/title/tt3205802/,TV Series,8.1,43,2014,"Crime, Drama, Mystery, Thriller",168085,2014-09-25,
298,tt1641349,2015-11-14,2015-11-14,,"Terra Nova","Terra Nova",https://www.imdb.com/title/tt1641349/,TV Series,6.7,46,2011,"Adventure, Drama, Mystery, Sci-Fi",86312,2011-09-26,
299,tt3501074,2015-11-14,2015-11-14,,"Madam Secretary","Madam Secretary",https://www.imdb.com/title/tt3501074/,TV Series,7.8,45,2014,"Drama, Thriller",26827,2014-09-21,
300,tt3084090,2015-11-14,2015-11-14,,"Badults","Badults",https://www.imdb.com/title/tt3084090/,TV Series,3.9,30,2013,"Comedy",380,2013-07-23,
301,tt1839578,2015-11-14,2015-11-14,,"Person of Interest","Person of Interest",https://www.imdb.com/title/tt1839578/,TV Series,8.5,43,2011,"Action, Crime, Drama, Mystery, Sci-Fi, Thriller",190758,2011-09-22,
302,tt0281491,2015-11-14,2015-11-14,,"Still Game","Still Game",https://www.imdb.com/title/tt0281491/,TV Series,8.9,29,2002,"Comedy",9396,2015-11-01,
303,tt2707408,2015-11-14,2015-11-14,,"Narcos","Narcos",https://www.imdb.com/title/tt2707408/,TV Series,8.8,50,2015,"Biography, Crime, Drama, Thriller",475170,2015-08-28,
304,tt3904068,2015-11-14,2015-11-14,,"Lady of Steel","Señora Acero",https://www.imdb.com/title/tt3904068/,TV Series,6.9,,2014,"Crime, Drama, Romance",491,2014-09-23,
305,tt2543796,2015-11-14,2015-11-14,,"Girl Meets World","Girl Meets World",https://www.imdb.com/title/tt2543796/,TV Series,7.1,23,2014,"Comedy, Drama, Family, Music",16307,2014-06-27,
306,tt1497609,2015-11-14,2015-11-14,,"Vexed","Vexed",https://www.imdb.com/title/tt1497609/,TV Series,7.2,60,2010,"Comedy, Crime, Mystery",3867,2010-08-15,
307,tt3920814,2015-11-14,2015-11-14,,"Strange Empire","Strange Empire",https://www.imdb.com/title/tt3920814/,TV Series,6.3,60,2014,"Drama, Western",1856,2014-10-06,
308,tt2983290,2015-11-14,2015-11-14,,"1992","1992",https://www.imdb.com/title/tt2983290/,TV Series,7.5,,2015,"Drama",2457,2015-03-24,
309,tt3044680,2015-11-14,2015-11-14,,"Dreamland","Dreamland",https://www.imdb.com/title/tt3044680/,TV Series,6.7,,2014,"Musical",66,2014-03-28,
310,tt2393813,2015-11-14,2015-11-14,,"Graceland","Graceland",https://www.imdb.com/title/tt2393813/,TV Series,7.6,42,2013,"Action, Crime, Drama",17740,2013-06-06,
311,tt4132692,2015-11-14,2015-11-14,,"Between","Between",https://www.imdb.com/title/tt4132692/,TV Series,5.9,60,2015,"Drama, Mystery, Sci-Fi, Thriller",10022,2015-05-21,
312,tt1885102,2015-11-14,2015-11-14,,"The Transporter","Transporter: The Series",https://www.imdb.com/title/tt1885102/,TV Series,6.4,48,2012,"Action, Crime",7687,2012-11-28,
313,tt2399794,2015-11-14,2015-11-14,,"Chasing Life","Chasing Life",https://www.imdb.com/title/tt2399794/,TV Series,7.8,60,2014,"Drama, Family, Romance",6234,2014-06-10,
314,tt2624370,2015-11-14,2015-11-14,,"Granite Flats","Granite Flats",https://www.imdb.com/title/tt2624370/,TV Series,7.9,50,2013,"Drama",1093,2013-04-07,
315,tt2874692,2015-11-14,2015-11-14,,"When Calls the Heart","When Calls the Heart",https://www.imdb.com/title/tt2874692/,TV Series,7.9,43,2014,"Drama, History, Romance",15235,2014-01-11,
316,tt3609352,2015-11-14,2015-11-14,,"Grace and Frankie","Grace and Frankie",https://www.imdb.com/title/tt3609352/,TV Series,8.2,30,2015,"Comedy",57549,2015-05-08,
317,tt3322312,2015-11-14,2015-11-14,,"Daredevil","Daredevil",https://www.imdb.com/title/tt3322312/,TV Series,8.6,60,2015,"Action, Crime, Drama, Fantasy, Sci-Fi, Thriller",478273,2015-04-10,
318,tt2543312,2015-11-14,2015-11-14,,"Halt and Catch Fire","Halt and Catch Fire",https://www.imdb.com/title/tt2543312/,TV Series,8.4,60,2014,"Drama",35537,2014-06-01,
