<svg width="1728" height="1117" viewBox="0 0 1728 1117" fill="none" xmlns="http://www.w3.org/2000/svg">
<g clip-path="url(#clip0_207_2733)">
<g filter="url(#filter0_f_207_2733)">
<ellipse cx="1227.5" cy="644.5" rx="962.5" ry="644.5" fill="#FB0200"/>
</g>
<g filter="url(#filter1_f_207_2733)">
<ellipse cx="422" cy="424.5" rx="894" ry="692.5" fill="#6ABEFE"/>
</g>
</g>
<defs>
<filter id="filter0_f_207_2733" x="-735" y="-1000" width="3925" height="3289" filterUnits="userSpaceOnUse" color-interpolation-filters="sRGB">
<feFlood flood-opacity="0" result="BackgroundImageFix"/>
<feBlend mode="normal" in="SourceGraphic" in2="BackgroundImageFix" result="shape"/>
<feGaussianBlur stdDeviation="500" result="effect1_foregroundBlur_207_2733"/>
</filter>
<filter id="filter1_f_207_2733" x="-1472" y="-1268" width="3788" height="3385" filterUnits="userSpaceOnUse" color-interpolation-filters="sRGB">
<feFlood flood-opacity="0" result="BackgroundImageFix"/>
<feBlend mode="normal" in="SourceGraphic" in2="BackgroundImageFix" result="shape"/>
<feGaussianBlur stdDeviation="500" result="effect1_foregroundBlur_207_2733"/>
</filter>
<clipPath id="clip0_207_2733">
<rect width="1728" height="1117" fill="white"/>
</clipPath>
</defs>
</svg>
